height,appearances,name,species
228,5,Chewbacca,Wookiee
202,4,Darth Vader,Human
182,6,Obi-Wan Kenobi,Human
180,4,Han Solo,Human
172,5,Luke Skywalker,Human
170,5,Palpatine,Human
167,6,C-3PO,Droid
150,5,Leia Organa,Human
96,7,R2-D2,Droid
66,5,Yoda,Yoda's species
